Engine\Binaries\Win64\UE4Game.exe	2015-11-20T15:05:26.261Z
Proba.exe	2016-01-07T13:01:06.130Z
Engine\Binaries\ThirdParty\PhysX\PhysX-3.3\Win64\VS2015\PhysX3PROFILE_x64.dll	2015-11-20T14:49:25.603Z
Engine\Binaries\ThirdParty\PhysX\PhysX-3.3\Win64\VS2015\PhysX3CommonPROFILE_x64.dll	2015-11-20T14:49:25.190Z
Engine\Binaries\ThirdParty\PhysX\PhysX-3.3\Win64\VS2015\PhysX3CookingPROFILE_x64.dll	2015-11-20T14:49:25.193Z
Engine\Binaries\ThirdParty\PhysX\PhysX-3.3\Win64\VS2015\nvToolsExt64_1.dll	2015-11-20T14:49:24.656Z
Engine\Binaries\ThirdParty\PhysX\APEX-1.3\Win64\VS2015\APEX_ClothingPROFILE_x64.dll	2015-11-20T14:49:22.183Z
Engine\Binaries\ThirdParty\PhysX\APEX-1.3\Win64\VS2015\APEX_DestructiblePROFILE_x64.dll	2015-11-20T14:49:22.188Z
Engine\Binaries\ThirdParty\PhysX\APEX-1.3\Win64\VS2015\APEX_LegacyPROFILE_x64.dll	2015-11-20T14:49:22.197Z
Engine\Binaries\ThirdParty\PhysX\APEX-1.3\Win64\VS2015\ApexFrameworkPROFILE_x64.dll	2015-11-20T14:49:23.006Z
Engine\Binaries\ThirdParty\Ogg\Win64\VS2015\libogg_64.dll	2015-11-20T14:49:20.123Z
Engine\Binaries\ThirdParty\Vorbis\Win64\VS2015\libvorbis_64.dll	2015-11-20T14:49:34.147Z
Engine\Binaries\ThirdParty\Vorbis\Win64\VS2015\libvorbisfile_64.dll	2015-11-20T14:49:34.149Z
Engine\Binaries\ThirdParty\Leap\Win64\Leap.dll	2015-11-20T14:49:20.039Z
Engine\Binaries\ThirdParty\OpenVR\OpenVRv000\Win64\openvr_api.dll	2015-11-20T14:49:20.546Z
Engine\Binaries\ThirdParty\Steamworks\Steamv132\Win64\steam_api64.dll	2015-11-20T14:49:27.907Z
